…
```r
deserts %>%
  group_by(species) %>%
  summarise(n_species = n()) %>%
  arrange(n_species)
```

```
## # A tibble: 40 × 2
##    species      n_species
##    <chr>            <int>
##  1 clarki               1
##  2 scutalatus           1
##  3 tereticaudus         1
##  4 tigris               1
##  5 uniparens            1
##  6 viridis              1
##  7 leucophrys           2
##  8 savannarum           2
##  9 fuscus               5
## 10 undulatus            5
## # ℹ 30 more rows
```
…
9. Which two species have, on average, the highest weight? Once you have identified them, make a new column that is a ratio of `weight` to `hindfoot_length`. Make a plot that shows the range of this new ratio and fill by sex.

```r
deserts %>%
  group_by(species) %>%
  summarise(mean_weight = mean(weight, na.rm = T)) %>%
  arrange(-mean_weight)
```

```
## # A tibble: 40 × 2
##    species      mean_weight
##    <chr>              <dbl>
##  1 albigula           159. 
##  2 spectabilis        120. 
##  3 spilosoma           93.5
##  4 hispidus            65.6
##  5 fulviventer         58.9
##  6 ochrognathus        55.4
##  7 ordii               48.9
##  8 merriami            43.2
##  9 baileyi             31.7
## 10 leucogaster         31.6
## # ℹ 30 more rows
```
…
