…
**7. Which countries have had the largest population growth since 1952?**

```r
gapminder %>%
  group_by(country)%>%
  summarise(popgrowth = max(pop) - min(pop)) %>%
  arrange(-popgrowth)
```

```
## # A tibble: 142 × 2
##    country       popgrowth
##    <fct>             <int>
##  1 China         762419569
##  2 India         738396331
##  3 United States 143586947
##  4 Indonesia     141495000
##  5 Brazil        133408087
##  6 Pakistan      127924057
##  7 Bangladesh    103561480
##  8 Nigeria       101912068
##  9 Mexico         78556574
## 10 Philippines    68638596
## # ℹ 132 more rows
```
…
