…
```r
colleges %>%
  group_by(city) %>%
  summarise(num_of_colleges = n()) %>%
  arrange(-num_of_colleges)
```

```
## # A tibble: 161 × 2
##    city          num_of_colleges
##    <chr>                   <int>
##  1 Los Angeles                24
##  2 San Diego                  18
##  3 San Francisco              15
##  4 Sacramento                 10
##  5 Berkeley                    9
##  6 Oakland                     9
##  7 Claremont                   7
##  8 Pasadena                    6
##  9 Fresno                      5
## 10 Irvine                      5
## # ℹ 151 more rows
```
Los Angeles.  
3. Based on your answer to #2, make a plot that shows the number of colleges in the top 10 cities.

```r
colleges %>%
  group_by(city) %>%
  summarise(num_of_colleges = n()) 
```

```
## # A tibble: 161 × 2
##    city        num_of_colleges
##    <chr>                 <int>
##  1 Alameda                   3
##  2 Anaheim                   4
##  3 Angwin                    1
##  4 Aptos                     1
##  5 Arcata                    1
##  6 Atherton                  1
##  7 Azusa                     1
##  8 Bakersfield               3
##  9 Barstow                   1
## 10 Belmont                   1
## # ℹ 151 more rows
```
…
