…
```r
miss_var_summary(global_sharks)
```

```
## # A tibble: 21 × 3
##    variable n_miss pct_miss
##    <chr>     <int>    <dbl>
##  1 time       3518    51.1 
##  2 species    3118    45.3 
##  3 age        2982    43.3 
##  4 activity    586     8.51
##  5 sex         572     8.30
##  6 location    565     8.20
##  7 area        481     6.98
##  8 date        305     4.43
##  9 name        220     3.19
## 10 year        132     1.92
## # ℹ 11 more rows
```
…
8. (3 points) Make a new object that limits the data to only include attacks attributed to Great White Sharks. This is trickier than it sounds, you should end up with 494 observations. Look online and adapt code involving `str_detect`. Which country has the highest number of Great White Shark attacks?

```r
global_sharks %>%
  filter(str_detect(species, "White"))%>% #There are White sharks and White Sharks, which makes things tricky.
  group_by(country) %>%
  summarise(incident_total = n()) %>%
  arrange(-incident_total)
```

```
## # A tibble: 36 × 2
##    country      incident_total
##    <chr>                 <int>
##  1 USA                     151
##  2 AUSTRALIA               135
##  3 SOUTH AFRICA            124
##  4 NEW ZEALAND              17
##  5 ITALY                    16
##  6 CROATIA                   9
##  7 GREECE                    4
##  8 CHILE                     3
##  9 BAHAMAS                   2
## 10 CANADA                    2
## # ℹ 26 more rows
```
…
10. (3 points) Using the `global_sharks` data, what is one question that you are interested in exploring? Write the question and answer it using a plot or table. 
Question: Which year has most shark accident?

```r
global_sharks %>%
  group_by(year) %>%
  summarise(incident_total=n()) %>%
  arrange(-incident_total)
```

```
## # A tibble: 256 × 2
##     year incident_total
##    <dbl>          <int>
##  1  2015            143
##  2  2017            139
##  3    NA            132
##  4  2016            131
##  5  2011            128
##  6  2014            126
##  7  2018            124
##  8  2008            122
##  9  2013            122
## 10  2009            120
## # ℹ 246 more rows
```
…
