…
Problem 9. (5 points) Among the YNP wolf packs, which one has had the highest overall persistence `persisty1` for the years represented in the data? Look this pack up online and tell me what is unique about its behavior- specifically, what prey animals does this pack specialize on?  

```r
ynp %>%
  group_by(pack) %>%
  summarize(overall_persistence = sum(persisty1)) %>%
  arrange(desc(overall_persistence))
```

```
## # A tibble: 46 × 2
##    pack        overall_persistence
##    <chr>                     <int>
##  1 mollies                      26
##  2 cougar                       20
##  3 yelldelta                    18
##  4 leopold                      12
##  5 agate                        10
##  6 8mile                         9
##  7 canyon                        9
##  8 gibbon/mary                   9
##  9 junction                      8
## 10 lamar                         8
## # ℹ 36 more rows
```
  The pack Mollies has the highest overall persistence. [Mollies pack](https://www.yellowstonewolf.org/yellowstones_wolves.php?pack_id=6) specialized on hunting bison. The carcasses they produced provide food for scavengers like grizzly bears. They have regular interaction with bears. The pack locates mainly in Pelican Valley area.
  
Problem 10. (3 points) Perform one analysis or exploration of your choice on the `wolves` data. Your answer needs to include at least two lines of code and not be a summary function.  

```r
ynp %>%
  group_by(biolyr) %>%
  summarize(reproduce_total = sum(reprody1, na.rm = T)) %>%
  arrange(desc(reproduce_total))
```

```
## # A tibble: 27 × 2
##    biolyr reproduce_total
##     <int>           <int>
##  1   2002              12
##  2   2003              11
##  3   2004              11
##  4   2005              11
##  5   2008              11
##  6   2006              10
##  7   2001               9
##  8   2007               9
##  9   2009               9
## 10   2012               9
## # ℹ 17 more rows
```
…
