…
```r
sharks %>%
  group_by(county,injury) %>%
  summarise(incident_total = sum(incident_num)) 
```

```
## `summarise()` has grouped output by 'county'. You can override using the
## `.groups` argument.
```

```
## # A tibble: 57 × 3
## # Groups:   county [21]
##    county              injury incident_total
##    <chr>               <chr>           <dbl>
##  1 Del Norte           minor             172
##  2 Del Norte           none               73
##  3 Humboldt            major             766
##  4 Humboldt            minor             104
##  5 Humboldt            none             1106
##  6 Island - Catalina   minor             199
##  7 Island - Catalina   none              461
##  8 Island - Farallones major             372
##  9 Island - San Miguel fatal              82
## 10 Island - San Miguel major             245
## # ℹ 47 more rows
```
…
13. (2 points) Using the `sharks` or the `white_sharks` data, what is one question that you are interested in exploring? Write the question and answer it using a plot or table.  
Question: In 'sharks' data, which year has the most number of shark related incidents?

```r
sharks %>%
  group_by(year) %>%
  summarise(total_incidents = sum(incident_num)) %>%
  arrange(-total_incidents)
```

```
## # A tibble: 63 × 2
##     year total_incidents
##    <dbl>           <dbl>
##  1  2020            1548
##  2  2017            1412
##  3  2021            1407
##  4  2015            1162
##  5  2014            1113
##  6  2007            1089
##  7  2012            1036
##  8  2019             935
##  9  2004             836
## 10  2018             730
## # ℹ 53 more rows
```
…
